{
	"id": "a32dd2e9-5cfb-4ab1-9642-b6e9ec68c05c",
	"name": "lr1_env",
	"values": [
		{
			"key": "url",
			"value": "localhost:8000/",
			"type": "default",
			"enabled": true
		},
		{
			"key": "",
			"value": "",
			"type": "default",
			"enabled": false
		}
	],
	"_postman_variable_scope": "environment",
	"_postman_exported_at": "2023-11-20T07:34:36.569Z",
	"_postman_exported_using": "Postman/10.20.0"
}